{
  "companies": [
    { "id": 1,
      "title": "First Corp.",
      "address": "59th to 110th Street, Manhattan Borough, from Central Park West to 5th Avenue",
      "INN": "991-845-21-0001"
    },
    { "id": 2,
      "title": "Second Corp.",
      "address": "2780 S Jones Blvd #200, Las Vegas, NV 89146",
      "INN": "991-845-21-0002"
    }
  ],
  "department": [
    { "id": 1,
      "idComp": 1,
      "titleDep": "Technical dep",
      "phoneDep": "7-777-555-01-01"
    },
    { "id": 2,
      "idComp": 1,
      "titleDep": "Economic dep",
      "phoneDep": "7-777-555-01-02"
    },
    { "id": 3,
      "idComp": 1,
      "titleDep": "Manager dep",
      "phoneDep": "7-777-555-01-03"
    },
    { "id": 2,
      "idComp": 2,
      "titleDep": "Manager dep",
      "phoneDep": "7-777-555-02-01"
    }
  ],
  "users": [
    { "id": 1,
      "idDep": 3,
      "name": "Иванов Иван Иванович",
      "staff": "Директор",
      "address": "улица Первомайская д.1"
    },
    { "id": 2,
      "idDep": 1,
      "name": "Петров Иван Иванович",
      "staff": "Програмист",
      "address": "улица Красова д.2"
    },
    { "id": 3,
      "idDep": 2,
      "name": "Иванова Ирина Ивановна",
      "staff": "Бухгалтер",
      "address": "улица Краснова д.3"
    },
    { "id": 4,
      "idDep": 1,
      "name": "Сидоров Петр Петрович",
      "staff": "Инженер",
      "address": "улица Зеленая д.3"
    }
  ]
}
